COS/counter_code/out.vcd
$date
	Fri Mar 15 21:43:36 2024
$end
$version
	Icarus Verilog
$end
$timescale
	1s
$end
$scope module tb_model_counter $end
$var wire 16 ! counter [15:0] $end
$var reg 1 " clk $end
$var reg 1 # mode $end
$var reg 1 $ reset $end
$scope module c1 $end
$var wire 1 " clk $end
$var wire 1 # mode $end
$var wire 1 $ reset $end
$var wire 15 % xr1 [14:0] $end
$var wire 16 & t [15:0] $end
$var wire 16 ' q_b [15:0] $end
$var wire 16 ( counter [15:0] $end
$var wire 15 ) ad2 [14:0] $end
$var wire 15 * ad1 [14:0] $end
$scope begin genblk1[1] $end
$scope begin genblk2 $end
$upscope $end
$scope module t1 $end
$var wire 1 + b_q $end
$var wire 1 " clk $end
$var wire 1 $ rst $end
$var wire 1 , t $end
$var reg 1 - q $end
$upscope $end
$upscope $end
$scope begin genblk1[2] $end
$scope begin genblk3 $end
$upscope $end
$scope module t1 $end
$var wire 1 . b_q $end
$var wire 1 " clk $end
$var wire 1 $ rst $end
$var wire 1 / t $end
$var reg 1 0 q $end
$upscope $end
$upscope $end
$scope begin genblk1[3] $end
$scope begin genblk3 $end
$upscope $end
$scope module t1 $end
$var wire 1 1 b_q $end
$var wire 1 " clk $end
$var wire 1 $ rst $end
$var wire 1 2 t $end
$var reg 1 3 q $end
$upscope $end
$upscope $end
$scope begin genblk1[4] $end
$scope begin genblk3 $end
$upscope $end
$scope module t1 $end
$var wire 1 4 b_q $end
$var wire 1 " clk $end
$var wire 1 $ rst $end
$var wire 1 5 t $end
$var reg 1 6 q $end
$upscope $end
$upscope $end
$scope begin genblk1[5] $end
$scope begin genblk3 $end
$upscope $end
$scope module t1 $end
$var wire 1 7 b_q $end
$var wire 1 " clk $end
$var wire 1 $ rst $end
$var wire 1 8 t $end
$var reg 1 9 q $end
$upscope $end
$upscope $end
$scope begin genblk1[6] $end
$scope begin genblk3 $end
$upscope $end
$scope module t1 $end
$var wire 1 : b_q $end
$var wire 1 " clk $end
$var wire 1 $ rst $end
$var wire 1 ; t $end
$var reg 1 < q $end
$upscope $end
$upscope $end
$scope begin genblk1[7] $end
$scope begin genblk3 $end
$upscope $end
$scope module t1 $end
$var wire 1 = b_q $end
$var wire 1 " clk $end
$var wire 1 $ rst $end
$var wire 1 > t $end
$var reg 1 ? q $end
$upscope $end
$upscope $end
$scope begin genblk1[8] $end
$scope begin genblk3 $end
$upscope $end
$scope module t1 $end
$var wire 1 @ b_q $end
$var wire 1 " clk $end
$var wire 1 $ rst $end
$var wire 1 A t $end
$var reg 1 B q $end
$upscope $end
$upscope $end
$scope begin genblk1[9] $end
$scope begin genblk3 $end
$upscope $end
$scope module t1 $end
$var wire 1 C b_q $end
$var wire 1 " clk $end
$var wire 1 $ rst $end
$var wire 1 D t $end
$var reg 1 E q $end
$upscope $end
$upscope $end
$scope begin genblk1[10] $end
$scope begin genblk3 $end
$upscope $end
$scope module t1 $end
$var wire 1 F b_q $end
$var wire 1 " clk $end
$var wire 1 $ rst $end
$var wire 1 G t $end
$var reg 1 H q $end
$upscope $end
$upscope $end
$scope begin genblk1[11] $end
$scope begin genblk3 $end
$upscope $end
$scope module t1 $end
$var wire 1 I b_q $end
$var wire 1 " clk $end
$var wire 1 $ rst $end
$var wire 1 J t $end
$var reg 1 K q $end
$upscope $end
$upscope $end
$scope begin genblk1[12] $end
$scope begin genblk3 $end
$upscope $end
$scope module t1 $end
$var wire 1 L b_q $end
$var wire 1 " clk $end
$var wire 1 $ rst $end
$var wire 1 M t $end
$var reg 1 N q $end
$upscope $end
$upscope $end
$scope begin genblk1[13] $end
$scope begin genblk3 $end
$upscope $end
$scope module t1 $end
$var wire 1 O b_q $end
$var wire 1 " clk $end
$var wire 1 $ rst $end
$var wire 1 P t $end
$var reg 1 Q q $end
$upscope $end
$upscope $end
$scope begin genblk1[14] $end
$scope begin genblk3 $end
$upscope $end
$scope module t1 $end
$var wire 1 R b_q $end
$var wire 1 " clk $end
$var wire 1 $ rst $end
$var wire 1 S t $end
$var reg 1 T q $end
$upscope $end
$upscope $end
$scope begin genblk1[15] $end
$scope begin genblk3 $end
$upscope $end
$scope module t1 $end
$var wire 1 U b_q $end
$var wire 1 " clk $end
$var wire 1 $ rst $end
$var wire 1 V t $end
$var reg 1 W q $end
$upscope $end
$upscope $end
$scope module t1 $end
$var wire 1 X b_q $end
$var wire 1 " clk $end
$var wire 1 $ rst $end
$var wire 1 Y t $end
$var reg 1 Z q $end
$upscope $end
$upscope $end
$upscope $end
$enddefinitions $end
#0
$dumpvars
0Z
1Y
1X
0W
0V
1U
0T
0S
1R
0Q
0P
1O
0N
0M
1L
0K
0J
1I
0H
0G
1F
0E
0D
1C
0B
0A
1@
0?
0>
1=
0<
0;
1:
09
08
17
06
05
14
03
02
11
00
0/
1.
0-
0,
1+
b0 *
b0 )
b0 (
b1111111111111111 '
bz1 &
b0 %
1$
0#
1"
b0 !
$end
#2
0"
0$
#4
1,
b1 %
b1 *
b1111111111111110 '
0X
b1 !
b1 (
1Z
1"
#6
0"
#8
0/
0,
b0 %
b0 *
0+
b1111111111111101 '
1X
1-
b10 !
b10 (
0Z
1"
#10
0"
#12
1/
1,
b11 %
b11 *
b1111111111111100 '
0X
b11 !
b11 (
1Z
1"
#14
0"
#16
0/
02
0,
b0 %
b0 *
1+
0.
b1111111111111011 '
1X
0-
10
b100 !
b100 (
0Z
1"
#18
0"
#20
1,
b1 %
b1 *
b1111111111111010 '
0X
b101 !
b101 (
1Z
1"
#22
0"
#24
02
0/
0,
b0 %
b0 *
0+
b1111111111111001 '
1X
1-
b110 !
b110 (
0Z
1"
#26
0"
#28
12
1/
1,
b111 %
b111 *
b1111111111111000 '
0X
b111 !
b111 (
1Z
1"
#30
0"
#32
0/
02
05
0,
b0 %
b0 *
1+
1.
01
b1111111111110111 '
1X
0-
00
13
b1000 !
b1000 (
0Z
1"
#34
0"
#36
1,
b1 %
b1 *
b1111111111110110 '
0X
b1001 !
b1001 (
1Z
1"
#38
0"
#40
0/
0,
b0 %
b0 *
0+
b1111111111110101 '
1X
1-
b1010 !
b1010 (
0Z
1"
#42
0"
1,
b1 %
b1 )
1#
#44
02
0,
0/
b0 %
b0 )
0X
b1111111111110110 '
1+
1Z
b1001 !
b1001 (
0-
1"
#46
0"
#48
12
1/
1,
b111 %
b111 )
b1111111111110111 '
1X
b1000 !
b1000 (
0Z
1"
#50
0"
#52
0V
0S
0P
0M
0J
0G
0D
0A
0>
0;
08
0,
05
02
0/
b0 %
b0 )
0X
11
0.
b1111111111111000 '
0+
1Z
03
10
b111 !
b111 (
1-
1"
#54
0"
#56
1,
b1 %
b1 )
b1111111111111001 '
1X
b110 !
b110 (
0Z
1"
#58
0"
#60
0,
0/
b0 %
b0 )
0X
b1111111111111010 '
1+
1Z
b101 !
b101 (
0-
1"
#62
0"
#64
1/
1,
b11 %
b11 )
b1111111111111011 '
1X
b100 !
b100 (
0Z
1"
#66
0"
#68
0V
0S
0P
0M
0J
0G
0D
0A
0>
0;
08
05
0,
02
0/
b0 %
b0 )
0X
1.
b1111111111111100 '
0+
1Z
00
b11 !
b11 (
1-
1"
#70
0"
#72
1,
b1 %
b1 )
b1111111111111101 '
1X
b10 !
b10 (
0Z
1"
#74
0"
#76
0V
0S
0P
0M
0J
0G
0D
0A
0>
0;
08
05
02
0,
0/
b0 %
b0 )
0X
b1111111111111110 '
1+
1Z
b1 !
b1 (
0-
1"
#78
0"
#80
1V
1S
1P
1M
1J
1G
1D
1A
1>
1;
18
15
12
1/
1,
b111111111111111 %
b111111111111111 )
b1111111111111111 '
1X
b0 !
b0 (
0Z
1"
#82
0"
#84
0,
0V
0S
0P
0M
0J
0G
0D
0A
0>
0;
08
05
02
0/
b0 %
b0 )
0X
0U
0R
0O
0L
0I
0F
0C
0@
0=
0:
07
04
01
0.
b0 '
0+
1Z
1W
1T
1Q
1N
1K
1H
1E
1B
1?
1<
19
16
13
10
b1111111111111111 !
b1111111111111111 (
1-
1"
#86
0"
#88
1,
b1 %
b1 )
b1 '
1X
b1111111111111110 !
b1111111111111110 (
0Z
1"
#90
0"
#92
0,
0/
b0 %
b0 )
0X
b10 '
1+
1Z
b1111111111111101 !
b1111111111111101 (
0-
1"
#94
0"
#96
1/
1,
b11 %
b11 )
b11 '
1X
b1111111111111100 !
b1111111111111100 (
0Z
1"
#98
0"
#100
0,
02
0/
b0 %
b0 )
0X
1.
b100 '
0+
1Z
00
b1111111111111011 !
b1111111111111011 (
1-
1"
#102
0"
#104
1,
b1 %
b1 )
b101 '
1X
b1111111111111010 !
b1111111111111010 (
0Z
1"
#106
0"
#108
02
0,
0/
b0 %
b0 )
0X
b110 '
1+
1Z
b1111111111111001 !
b1111111111111001 (
0-
1"
#110
0"
#112
12
1/
1,
b111 %
b111 )
b111 '
1X
b1111111111111000 !
b1111111111111000 (
0Z
1"
#114
0"
#116
0,
05
02
0/
b0 %
b0 )
0X
11
0.
b1000 '
0+
1Z
03
10
b1111111111110111 !
b1111111111110111 (
1-
1"
#118
0"
#120
1,
b1 %
b1 )
b1001 '
1X
b1111111111110110 !
b1111111111110110 (
0Z
1"
#122
0"
#124
0,
0/
b0 %
b0 )
0X
b1010 '
1+
1Z
b1111111111110101 !
b1111111111110101 (
0-
1"
#126
0"
#128
1/
1,
b11 %
b11 )
b1011 '
1X
b1111111111110100 !
b1111111111110100 (
0Z
1"
#130
0"
#132
05
0,
02
0/
b0 %
b0 )
0X
1.
b1100 '
0+
1Z
00
b1111111111110011 !
b1111111111110011 (
1-
1"
#134
0"
#136
1,
b1 %
b1 )
b1101 '
1X
b1111111111110010 !
b1111111111110010 (
0Z
1"
#138
0"
#140
05
02
0,
0/
b0 %
b0 )
0X
b1110 '
1+
1Z
b1111111111110001 !
b1111111111110001 (
0-
1"
#142
0"
#144
15
12
1/
1,
b1111 %
b1111 )
b1111 '
1X
b1111111111110000 !
b1111111111110000 (
0Z
1"
#146
0"
#148
0,
08
05
02
0/
b0 %
b0 )
0X
14
01
0.
b10000 '
0+
1Z
06
13
10
b1111111111101111 !
b1111111111101111 (
1-
1"
#150
0"
#152
1,
b1 %
b1 )
b10001 '
1X
b1111111111101110 !
b1111111111101110 (
0Z
1"
#154
0"
#156
0,
0/
b0 %
b0 )
0X
b10010 '
1+
1Z
b1111111111101101 !
b1111111111101101 (
0-
1"
#158
0"
#160
1/
1,
b11 %
b11 )
b10011 '
1X
b1111111111101100 !
b1111111111101100 (
0Z
1"
#162
0"
#164
0,
02
0/
b0 %
b0 )
0X
1.
b10100 '
0+
1Z
00
b1111111111101011 !
b1111111111101011 (
1-
1"
#166
0"
#168
1,
b1 %
b1 )
b10101 '
1X
b1111111111101010 !
b1111111111101010 (
0Z
1"
#170
0"
#172
02
0,
0/
b0 %
b0 )
0X
b10110 '
1+
1Z
b1111111111101001 !
b1111111111101001 (
0-
1"
#174
0"
#176
12
1/
1,
b111 %
b111 )
b10111 '
1X
b1111111111101000 !
b1111111111101000 (
0Z
1"
#178
0"
#180
08
0,
05
02
0/
b0 %
b0 )
0X
11
0.
b11000 '
0+
1Z
03
10
b1111111111100111 !
b1111111111100111 (
1-
1"
#182
0"
#184
1,
b1 %
b1 )
b11001 '
1X
b1111111111100110 !
b1111111111100110 (
0Z
1"
#186
0"
#188
0,
0/
b0 %
b0 )
0X
b11010 '
1+
1Z
b1111111111100101 !
b1111111111100101 (
0-
1"
#190
0"
#192
1/
1,
b11 %
b11 )
b11011 '
1X
b1111111111100100 !
b1111111111100100 (
0Z
1"
#194
0"
#196
08
05
0,
02
0/
b0 %
b0 )
0X
1.
b11100 '
0+
1Z
00
b1111111111100011 !
b1111111111100011 (
1-
1"
#198
0"
#200
1,
b1 %
b1 )
b11101 '
1X
b1111111111100010 !
b1111111111100010 (
0Z
1"
#202
0"
#204
08
05
02
0,
0/
b0 %
b0 )
0X
b11110 '
1+
1Z
b1111111111100001 !
b1111111111100001 (
0-
1"
#206
0"
#208
18
15
12
1/
1,
b11111 %
b11111 )
b11111 '
1X
b1111111111100000 !
b1111111111100000 (
0Z
1"
#210
0"
#212
0,
0;
08
05
02
0/
b0 %
b0 )
0X
17
04
01
0.
b100000 '
0+
1Z
09
16
13
10
b1111111111011111 !
b1111111111011111 (
1-
1"
#214
0"
#216
1,
b1 %
b1 )
b100001 '
1X
b1111111111011110 !
b1111111111011110 (
0Z
1"
#218
0"
#220
0,
0/
b0 %
b0 )
0X
b100010 '
1+
1Z
b1111111111011101 !
b1111111111011101 (
0-
1"
#222
0"
#224
1/
1,
b11 %
b11 )
b100011 '
1X
b1111111111011100 !
b1111111111011100 (
0Z
1"
#226
0"
#228
0,
02
0/
b0 %
b0 )
0X
1.
b100100 '
0+
1Z
00
b1111111111011011 !
b1111111111011011 (
1-
1"
#230
0"
#232
1,
b1 %
b1 )
b100101 '
1X
b1111111111011010 !
b1111111111011010 (
0Z
1"
#234
0"
#236
02
0,
0/
b0 %
b0 )
0X
b100110 '
1+
1Z
b1111111111011001 !
b1111111111011001 (
0-
1"
#238
0"
#240
12
1/
1,
b111 %
b111 )
b100111 '
1X
b1111111111011000 !
b1111111111011000 (
0Z
1"
